{
    "pre-commit": {
        "enabled": true,
        "actions": [
            {
                "action": "\\CaptainHook\\App\\Hook\\PHP\\Action\\Linting",
                "options": [],
                "conditions": []
            },
            {
                "action": "vendor/bin/rector process src tests --dry-run",
                "options": [],
                "conditions": []
            },
            {
                "action": "vendor/bin/ecs check src tests",
                "options": [],
                "conditions": []
            },
            {
                "action": "vendor/bin/phpunit --testdox --no-interaction --configuration phpunit.xml.dist",
                "options": [],
                "conditions": []
            }
        ]
    }
}
